<?xml version="1.0" encoding="utf-8"?>
<!-- Generator: Adobe Illustrator 24.0.2, SVG Export Plug-In . SVG Version: 6.00 Build 0)  -->
<svg version="1.1" id="porsche_копия_2_1_" xmlns="http://www.w3.org/2000/svg" xmlns:xlink="http://www.w3.org/1999/xlink"
	 x="0px" y="0px" viewBox="0 0 1084.6 686.42" style="enable-background:new 0 0 1084.6 686.42;" xml:space="preserve">
<style type="text/css">
	.st0{fill:#FFFFFF;}
</style>
<g id="porsche_копия_2">
	<g>
		<path class="st0" d="M134.84,139.24c-24.25,8.91,41.44,5.67,41.44,5.67s40.59,0.22,89.06,0.38c2.86-4.45,9.82-14.49,17.47-23.64
			C178.96,124.28,157.06,131.08,134.84,139.24z M176.28,420.6c0,0-65.69-3.24-41.44,5.67c22.21,8.16,44.12,14.96,147.97,17.6
			c-7.66-9.15-14.61-19.19-17.47-23.64C216.87,420.38,176.28,420.6,176.28,420.6z M20.38,284.28c0.18,15.55,1.41,89.39,9.06,102.93
			c9.77,18.12,159,20.07,168.04,16.68c9.04-3.39,13.62-2.32,13.62-20.85c0-16.48,0-83.96,0-98.76c0,0,0-1.07,0-2.92
			c0-14.8,0-82.28,0-98.76c0-18.54-4.58-17.46-13.62-20.85c-9.04-3.39-158.27-1.43-168.04,16.68c-7.65,13.54-8.88,87.38-9.06,102.93
			h-0.03c0,0,0,0.54,0.01,1.46c-0.01,0.92-0.01,1.46-0.01,1.46H20.38z M843.81,0.04H0v93.09c25.4-8.26,59.62-16.23,102.1-18.96
			c99.68-6.4,177.12,12.51,177.12,12.51h220.7c-3.81-7.93-6.95-13.94-6.95-13.94c21.58-0.26,24.39,4.63,28.31,9.78
			c0.74,0.97,2.2,2.42,4.16,4.16h126.19c0,0,60.84-9.06,118.08-4.17c57.24,4.89,129.34,22.33,149.87,41.7
			c20.29,19.15,58.07,69.91,58.96,157.01h0.08c0,0.52-0.04,1.01-0.04,1.53c0,0.52,0.04,1,0.04,1.53h-0.08
			c-0.89,87.1-38.67,137.86-58.96,157.01c-20.53,19.38-92.63,36.82-149.87,41.7c-57.24,4.89-118.08-4.17-118.08-4.17H525.44
			c-1.96,1.74-3.42,3.19-4.16,4.16c-3.92,5.15-6.73,10.04-28.31,9.78c0,0,3.14-6.01,6.95-13.94h-220.7c0,0-77.44,18.91-177.12,12.51
			C59.62,488.6,25.4,480.63,0,472.37v214.05h201.42V566.54h644.43c152.36,0,238.74-111.41,238.74-210.06V202.59
			C1085.44,102.74,999.16-2.29,843.81,0.04z M853.21,443.89c9.14,9.85,29.12,8.01,44.63-4.12c15.51-12.13,20.67-29.95,11.53-39.81
			c-9.14-9.85-29.12-8.01-44.63,4.12C849.23,416.21,844.07,434.03,853.21,443.89z M320.53,444.6c75.59,1.22,146.48,3.08,191.74,4.4
			c0.74-2.61,1.2-4.86,1.16-6.42l-0.32-3.97c-34.15-8.05-75.62-17.33-88.18-18c-11.25-0.61-73.54-0.61-132.94-0.45
			C300.98,430.42,311.75,438.74,320.53,444.6z M489.23,417.8c0,0,108.47,31.61,120.08,31.98c11.61,0.37,32.42-12.5,41.23-23.89
			c8.81-11.39,37.62-36.8,37.62-144.66h-0.03c-0.55-105.24-28.88-130.32-37.6-141.6c-8.81-11.39-29.62-24.26-41.23-23.89
			c-11.61,0.37-120.08,31.98-120.08,31.98s-25.62,4.04-14.81,20.58c9.69,14.83,10.05,96.21,10.02,112.93h-0.01
			c0,0,0.8,99.45-10.01,115.99C463.61,413.75,489.23,417.8,489.23,417.8z M864.74,161.42c15.51,12.13,35.49,13.97,44.63,4.12
			c9.14-9.85,3.98-27.68-11.53-39.81c-15.51-12.13-35.49-13.97-44.63-4.12C844.07,131.47,849.23,149.29,864.74,161.42z
			 M320.53,120.9c-8.78,5.86-19.55,14.18-28.54,24.46c59.41,0.15,121.69,0.15,132.94-0.45c12.56-0.68,54.01-9.95,88.16-18l0.34-3.98
			c0.04-1.56-0.42-3.81-1.16-6.42C467.01,117.82,396.12,119.69,320.53,120.9z"/>
	</g>
</g>
</svg>
